Run with id: B91HHVYF-gridSearch[e:0.0001,l:0.001]

Started 2018-04-10 17:02:57.522009
Finished 2018-04-10 17:04:30.654798
n_batch:100
eta:0.000100
epochs :40
lambda:0.001000
Training set size: 10000
Validation set size: 10000
Final accuracy: 0.211100


Saved epochs information:
-----------
  Epoch: 1
  - Running minibatch...
  - Computing cost...
  - Computing validation cost...
  - Computing accuracy...
  Cost: 2.324825
  Vali-cost: 2.326919
  Acc : 0.089200
-----------
  Epoch: 2
  - Running minibatch...
  - Computing cost...
  - Computing validation cost...
  - Computing accuracy...
  Cost: 2.316216
  Vali-cost: 2.318394
  Acc : 0.097700
-----------
  Epoch: 3
  - Running minibatch...
  - Computing cost...
  - Computing validation cost...
  - Computing accuracy...
  Cost: 2.309777
  Vali-cost: 2.312038
  Acc : 0.106600
-----------
  Epoch: 4
  - Running minibatch...
  - Computing cost...
  - Computing validation cost...
  - Computing accuracy...
  Cost: 2.304717
  Vali-cost: 2.307062
  Acc : 0.114600
-----------
  Epoch: 5
  - Running minibatch...
  - Computing cost...
  - Computing validation cost...
  - Computing accuracy...
  Cost: 2.300539
  Vali-cost: 2.302969
  Acc : 0.119400
-----------
  Epoch: 6
  - Running minibatch...
  - Computing cost...
  - Computing validation cost...
  - Computing accuracy...
  Cost: 2.296930
  Vali-cost: 2.299447
  Acc : 0.124800
-----------
  Epoch: 7
  - Running minibatch...
  - Computing cost...
  - Computing validation cost...
  - Computing accuracy...
  Cost: 2.293693
  Vali-cost: 2.296299
  Acc : 0.129100
-----------
  Epoch: 8
  - Running minibatch...
  - Computing cost...
  - Computing validation cost...
  - Computing accuracy...
  Cost: 2.290701
  Vali-cost: 2.293400
  Acc : 0.134100
-----------
  Epoch: 9
  - Running minibatch...
  - Computing cost...
  - Computing validation cost...
  - Computing accuracy...
  Cost: 2.287876
  Vali-cost: 2.290672
  Acc : 0.137100
-----------
  Epoch: 10
  - Running minibatch...
  - Computing cost...
  - Computing validation cost...
  - Computing accuracy...
  Cost: 2.285168
  Vali-cost: 2.288062
  Acc : 0.142400
-----------
  Epoch: 11
  - Running minibatch...
  - Computing cost...
  - Computing validation cost...
  - Computing accuracy...
  Cost: 2.282545
  Vali-cost: 2.285540
  Acc : 0.144100
-----------
  Epoch: 12
  - Running minibatch...
  - Computing cost...
  - Computing validation cost...
  - Computing accuracy...
  Cost: 2.279986
  Vali-cost: 2.283084
  Acc : 0.148100
-----------
  Epoch: 13
  - Running minibatch...
  - Computing cost...
  - Computing validation cost...
  - Computing accuracy...
  Cost: 2.277479
  Vali-cost: 2.280681
  Acc : 0.149900
-----------
  Epoch: 14
  - Running minibatch...
  - Computing cost...
  - Computing validation cost...
  - Computing accuracy...
  Cost: 2.275014
  Vali-cost: 2.278322
  Acc : 0.153100
-----------
  Epoch: 15
  - Running minibatch...
  - Computing cost...
  - Computing validation cost...
  - Computing accuracy...
  Cost: 2.272586
  Vali-cost: 2.276001
  Acc : 0.154700
-----------
  Epoch: 16
  - Running minibatch...
  - Computing cost...
  - Computing validation cost...
  - Computing accuracy...
  Cost: 2.270190
  Vali-cost: 2.273714
  Acc : 0.156500
-----------
  Epoch: 17
  - Running minibatch...
  - Computing cost...
  - Computing validation cost...
  - Computing accuracy...
  Cost: 2.267826
  Vali-cost: 2.271458
  Acc : 0.159600
-----------
  Epoch: 18
  - Running minibatch...
  - Computing cost...
  - Computing validation cost...
  - Computing accuracy...
  Cost: 2.265490
  Vali-cost: 2.269231
  Acc : 0.161800
-----------
  Epoch: 19
  - Running minibatch...
  - Computing cost...
  - Computing validation cost...
  - Computing accuracy...
  Cost: 2.263181
  Vali-cost: 2.267032
  Acc : 0.164800
-----------
  Epoch: 20
  - Running minibatch...
  - Computing cost...
  - Computing validation cost...
  - Computing accuracy...
  Cost: 2.260899
  Vali-cost: 2.264859
  Acc : 0.168100
-----------
  Epoch: 21
  - Running minibatch...
  - Computing cost...
  - Computing validation cost...
  - Computing accuracy...
  Cost: 2.258642
  Vali-cost: 2.262712
  Acc : 0.171600
-----------
  Epoch: 22
  - Running minibatch...
  - Computing cost...
  - Computing validation cost...
  - Computing accuracy...
  Cost: 2.256410
  Vali-cost: 2.260590
  Acc : 0.174300
-----------
  Epoch: 23
  - Running minibatch...
  - Computing cost...
  - Computing validation cost...
  - Computing accuracy...
  Cost: 2.254203
  Vali-cost: 2.258491
  Acc : 0.176900
-----------
  Epoch: 24
  - Running minibatch...
  - Computing cost...
  - Computing validation cost...
  - Computing accuracy...
  Cost: 2.252019
  Vali-cost: 2.256417
  Acc : 0.180800
-----------
  Epoch: 25
  - Running minibatch...
  - Computing cost...
  - Computing validation cost...
  - Computing accuracy...
  Cost: 2.249860
  Vali-cost: 2.254365
  Acc : 0.182400
-----------
  Epoch: 26
  - Running minibatch...
  - Computing cost...
  - Computing validation cost...
  - Computing accuracy...
  Cost: 2.247723
  Vali-cost: 2.252337
  Acc : 0.184500
-----------
  Epoch: 27
  - Running minibatch...
  - Computing cost...
  - Computing validation cost...
  - Computing accuracy...
  Cost: 2.245609
  Vali-cost: 2.250330
  Acc : 0.186600
-----------
  Epoch: 28
  - Running minibatch...
  - Computing cost...
  - Computing validation cost...
  - Computing accuracy...
  Cost: 2.243518
  Vali-cost: 2.248346
  Acc : 0.187700
-----------
  Epoch: 29
  - Running minibatch...
  - Computing cost...
  - Computing validation cost...
  - Computing accuracy...
  Cost: 2.241449
  Vali-cost: 2.246383
  Acc : 0.189300
-----------
  Epoch: 30
  - Running minibatch...
  - Computing cost...
  - Computing validation cost...
  - Computing accuracy...
  Cost: 2.239401
  Vali-cost: 2.244441
  Acc : 0.192500
-----------
  Epoch: 31
  - Running minibatch...
  - Computing cost...
  - Computing validation cost...
  - Computing accuracy...
  Cost: 2.237375
  Vali-cost: 2.242521
  Acc : 0.193500
-----------
  Epoch: 32
  - Running minibatch...
  - Computing cost...
  - Computing validation cost...
  - Computing accuracy...
  Cost: 2.235370
  Vali-cost: 2.240620
  Acc : 0.196100
-----------
  Epoch: 33
  - Running minibatch...
  - Computing cost...
  - Computing validation cost...
  - Computing accuracy...
  Cost: 2.233386
  Vali-cost: 2.238741
  Acc : 0.198500
-----------
  Epoch: 34
  - Running minibatch...
  - Computing cost...
  - Computing validation cost...
  - Computing accuracy...
  Cost: 2.231422
  Vali-cost: 2.236880
  Acc : 0.201000
-----------
  Epoch: 35
  - Running minibatch...
  - Computing cost...
  - Computing validation cost...
  - Computing accuracy...
  Cost: 2.229478
  Vali-cost: 2.235040
  Acc : 0.202900
-----------
  Epoch: 36
  - Running minibatch...
  - Computing cost...
  - Computing validation cost...
  - Computing accuracy...
  Cost: 2.227555
  Vali-cost: 2.233219
  Acc : 0.205200
-----------
  Epoch: 37
  - Running minibatch...
  - Computing cost...
  - Computing validation cost...
  - Computing accuracy...
  Cost: 2.225651
  Vali-cost: 2.231417
  Acc : 0.206100
-----------
  Epoch: 38
  - Running minibatch...
  - Computing cost...
  - Computing validation cost...
  - Computing accuracy...
  Cost: 2.223766
  Vali-cost: 2.229633
  Acc : 0.207900
-----------
  Epoch: 39
  - Running minibatch...
  - Computing cost...
  - Computing validation cost...
  - Computing accuracy...
  Cost: 2.221900
  Vali-cost: 2.227869
  Acc : 0.209500
-----------
  Epoch: 40
  - Running minibatch...
  - Computing cost...
  - Computing validation cost...
  - Computing accuracy...
  Cost: 2.220053
  Vali-cost: 2.226122
  Acc : 0.211100
