Run with id: JJ7EHPHD-OptimizedTest6

Started 2018-04-10 22:12:41.603186
Finished 2018-04-10 22:14:31.223533
n_batch:100
eta:0.007000
epochs :40
lambda:0.100000
Training set size: 49000
Validation set size: 1000
Final accuracy: 0.333100


Saved epochs information:
-----------
  Epoch: 1
  - Running minibatch...
  - Computing cost...
  - Computing validation cost...
  - Computing accuracy...
  Cost: 2.475458
  Vali-cost: 2.482706
  Acc : 0.211900
-----------
  Epoch: 2
  - Running minibatch...
  - Computing cost...
  - Computing validation cost...
  - Computing accuracy...
  Cost: 2.389198
  Vali-cost: 2.397548
  Acc : 0.248700
-----------
  Epoch: 3
  - Running minibatch...
  - Computing cost...
  - Computing validation cost...
  - Computing accuracy...
  Cost: 2.331081
  Vali-cost: 2.339945
  Acc : 0.268700
-----------
  Epoch: 4
  - Running minibatch...
  - Computing cost...
  - Computing validation cost...
  - Computing accuracy...
  Cost: 2.287893
  Vali-cost: 2.296984
  Acc : 0.279300
-----------
  Epoch: 5
  - Running minibatch...
  - Computing cost...
  - Computing validation cost...
  - Computing accuracy...
  Cost: 2.253805
  Vali-cost: 2.262981
  Acc : 0.287600
-----------
  Epoch: 6
  - Running minibatch...
  - Computing cost...
  - Computing validation cost...
  - Computing accuracy...
  Cost: 2.225851
  Vali-cost: 2.235048
  Acc : 0.294100
-----------
  Epoch: 7
  - Running minibatch...
  - Computing cost...
  - Computing validation cost...
  - Computing accuracy...
  Cost: 2.202345
  Vali-cost: 2.211542
  Acc : 0.298100
-----------
  Epoch: 8
  - Running minibatch...
  - Computing cost...
  - Computing validation cost...
  - Computing accuracy...
  Cost: 2.182241
  Vali-cost: 2.191439
  Acc : 0.302200
-----------
  Epoch: 9
  - Running minibatch...
  - Computing cost...
  - Computing validation cost...
  - Computing accuracy...
  Cost: 2.164838
  Vali-cost: 2.174051
  Acc : 0.306200
-----------
  Epoch: 10
  - Running minibatch...
  - Computing cost...
  - Computing validation cost...
  - Computing accuracy...
  Cost: 2.149642
  Vali-cost: 2.158888
  Acc : 0.308700
-----------
  Epoch: 11
  - Running minibatch...
  - Computing cost...
  - Computing validation cost...
  - Computing accuracy...
  Cost: 2.136286
  Vali-cost: 2.145583
  Acc : 0.311600
-----------
  Epoch: 12
  - Running minibatch...
  - Computing cost...
  - Computing validation cost...
  - Computing accuracy...
  Cost: 2.124486
  Vali-cost: 2.133852
  Acc : 0.314400
-----------
  Epoch: 13
  - Running minibatch...
  - Computing cost...
  - Computing validation cost...
  - Computing accuracy...
  Cost: 2.114019
  Vali-cost: 2.123469
  Acc : 0.315800
-----------
  Epoch: 14
  - Running minibatch...
  - Computing cost...
  - Computing validation cost...
  - Computing accuracy...
  Cost: 2.104705
  Vali-cost: 2.114251
  Acc : 0.317900
-----------
  Epoch: 15
  - Running minibatch...
  - Computing cost...
  - Computing validation cost...
  - Computing accuracy...
  Cost: 2.096395
  Vali-cost: 2.106046
  Acc : 0.319300
-----------
  Epoch: 16
  - Running minibatch...
  - Computing cost...
  - Computing validation cost...
  - Computing accuracy...
  Cost: 2.088965
  Vali-cost: 2.098728
  Acc : 0.320700
-----------
  Epoch: 17
  - Running minibatch...
  - Computing cost...
  - Computing validation cost...
  - Computing accuracy...
  Cost: 2.082309
  Vali-cost: 2.092190
  Acc : 0.321900
-----------
  Epoch: 18
  - Running minibatch...
  - Computing cost...
  - Computing validation cost...
  - Computing accuracy...
  Cost: 2.076340
  Vali-cost: 2.086341
  Acc : 0.323000
-----------
  Epoch: 19
  - Running minibatch...
  - Computing cost...
  - Computing validation cost...
  - Computing accuracy...
  Cost: 2.070979
  Vali-cost: 2.081101
  Acc : 0.323700
-----------
  Epoch: 20
  - Running minibatch...
  - Computing cost...
  - Computing validation cost...
  - Computing accuracy...
  Cost: 2.066160
  Vali-cost: 2.076404
  Acc : 0.325400
-----------
  Epoch: 21
  - Running minibatch...
  - Computing cost...
  - Computing validation cost...
  - Computing accuracy...
  Cost: 2.061825
  Vali-cost: 2.072190
  Acc : 0.326500
-----------
  Epoch: 22
  - Running minibatch...
  - Computing cost...
  - Computing validation cost...
  - Computing accuracy...
  Cost: 2.057923
  Vali-cost: 2.068407
  Acc : 0.326700
-----------
  Epoch: 23
  - Running minibatch...
  - Computing cost...
  - Computing validation cost...
  - Computing accuracy...
  Cost: 2.054410
  Vali-cost: 2.065010
  Acc : 0.327900
-----------
  Epoch: 24
  - Running minibatch...
  - Computing cost...
  - Computing validation cost...
  - Computing accuracy...
  Cost: 2.051245
  Vali-cost: 2.061958
  Acc : 0.328600
-----------
  Epoch: 25
  - Running minibatch...
  - Computing cost...
  - Computing validation cost...
  - Computing accuracy...
  Cost: 2.048394
  Vali-cost: 2.059216
  Acc : 0.328500
-----------
  Epoch: 26
  - Running minibatch...
  - Computing cost...
  - Computing validation cost...
  - Computing accuracy...
  Cost: 2.045826
  Vali-cost: 2.056753
  Acc : 0.329500
-----------
  Epoch: 27
  - Running minibatch...
  - Computing cost...
  - Computing validation cost...
  - Computing accuracy...
  Cost: 2.043511
  Vali-cost: 2.054541
  Acc : 0.330100
-----------
  Epoch: 28
  - Running minibatch...
  - Computing cost...
  - Computing validation cost...
  - Computing accuracy...
  Cost: 2.041427
  Vali-cost: 2.052553
  Acc : 0.330500
-----------
  Epoch: 29
  - Running minibatch...
  - Computing cost...
  - Computing validation cost...
  - Computing accuracy...
  Cost: 2.039549
  Vali-cost: 2.050769
  Acc : 0.331200
-----------
  Epoch: 30
  - Running minibatch...
  - Computing cost...
  - Computing validation cost...
  - Computing accuracy...
  Cost: 2.037858
  Vali-cost: 2.049168
  Acc : 0.331500
-----------
  Epoch: 31
  - Running minibatch...
  - Computing cost...
  - Computing validation cost...
  - Computing accuracy...
  Cost: 2.036336
  Vali-cost: 2.047731
  Acc : 0.331500
-----------
  Epoch: 32
  - Running minibatch...
  - Computing cost...
  - Computing validation cost...
  - Computing accuracy...
  Cost: 2.034967
  Vali-cost: 2.046443
  Acc : 0.331700
-----------
  Epoch: 33
  - Running minibatch...
  - Computing cost...
  - Computing validation cost...
  - Computing accuracy...
  Cost: 2.033736
  Vali-cost: 2.045289
  Acc : 0.331900
-----------
  Epoch: 34
  - Running minibatch...
  - Computing cost...
  - Computing validation cost...
  - Computing accuracy...
  Cost: 2.032629
  Vali-cost: 2.044257
  Acc : 0.332400
-----------
  Epoch: 35
  - Running minibatch...
  - Computing cost...
  - Computing validation cost...
  - Computing accuracy...
  Cost: 2.031635
  Vali-cost: 2.043333
  Acc : 0.332800
-----------
  Epoch: 36
  - Running minibatch...
  - Computing cost...
  - Computing validation cost...
  - Computing accuracy...
  Cost: 2.030743
  Vali-cost: 2.042507
  Acc : 0.332800
-----------
  Epoch: 37
  - Running minibatch...
  - Computing cost...
  - Computing validation cost...
  - Computing accuracy...
  Cost: 2.029943
  Vali-cost: 2.041771
  Acc : 0.333200
-----------
  Epoch: 38
  - Running minibatch...
  - Computing cost...
  - Computing validation cost...
  - Computing accuracy...
  Cost: 2.029227
  Vali-cost: 2.041114
  Acc : 0.333000
-----------
  Epoch: 39
  - Running minibatch...
  - Computing cost...
  - Computing validation cost...
  - Computing accuracy...
  Cost: 2.028586
  Vali-cost: 2.040530
  Acc : 0.333400
-----------
  Epoch: 40
  - Running minibatch...
  - Computing cost...
  - Computing validation cost...
  - Computing accuracy...
  Cost: 2.028013
  Vali-cost: 2.040010
  Acc : 0.333100
