Run with id: PMB96NU0-gridSearch-e-0.2-l-1e-05

Started 2018-04-10 20:57:36.660484
Finished 2018-04-10 20:59:08.486730
n_batch:100
eta:0.200000
epochs :40
lambda:0.000010
Training set size: 10000
Validation set size: 10000
Final accuracy: 0.257500


Saved epochs information:
-----------
  Epoch: 1
  - Running minibatch...
  - Computing cost...
  - Computing validation cost...
  - Computing accuracy...
  Cost: 48.829627
  Vali-cost: 49.178966
  Acc : 0.106900
-----------
  Epoch: 2
  - Running minibatch...
  - Computing cost...
  - Computing validation cost...
  - Computing accuracy...
  Cost: 27.094258
  Vali-cost: 27.337952
  Acc : 0.174900
-----------
  Epoch: 3
  - Running minibatch...
  - Computing cost...
  - Computing validation cost...
  - Computing accuracy...
  Cost: 40.090242
  Vali-cost: 40.660631
  Acc : 0.134800
-----------
  Epoch: 4
  - Running minibatch...
  - Computing cost...
  - Computing validation cost...
  - Computing accuracy...
  Cost: 24.749429
  Vali-cost: 24.972894
  Acc : 0.127200
-----------
  Epoch: 5
  - Running minibatch...
  - Computing cost...
  - Computing validation cost...
  - Computing accuracy...
  Cost: 25.909834
  Vali-cost: 26.305825
  Acc : 0.215900
-----------
  Epoch: 6
  - Running minibatch...
  - Computing cost...
  - Computing validation cost...
  - Computing accuracy...
  Cost: 16.404626
  Vali-cost: 16.731901
  Acc : 0.208200
-----------
  Epoch: 7
  - Running minibatch...
  - Computing cost...
  - Computing validation cost...
  - Computing accuracy...
  Cost: 20.028510
  Vali-cost: 20.300835
  Acc : 0.274600
-----------
  Epoch: 8
  - Running minibatch...
  - Computing cost...
  - Computing validation cost...
  - Computing accuracy...
  Cost: 15.370533
  Vali-cost: 15.802885
  Acc : 0.193400
-----------
  Epoch: 9
  - Running minibatch...
  - Computing cost...
  - Computing validation cost...
  - Computing accuracy...
  Cost: 18.439785
  Vali-cost: 18.737082
  Acc : 0.236300
-----------
  Epoch: 10
  - Running minibatch...
  - Computing cost...
  - Computing validation cost...
  - Computing accuracy...
  Cost: 21.344936
  Vali-cost: 21.870540
  Acc : 0.143500
-----------
  Epoch: 11
  - Running minibatch...
  - Computing cost...
  - Computing validation cost...
  - Computing accuracy...
  Cost: 18.543440
  Vali-cost: 18.938910
  Acc : 0.226100
-----------
  Epoch: 12
  - Running minibatch...
  - Computing cost...
  - Computing validation cost...
  - Computing accuracy...
  Cost: 18.791093
  Vali-cost: 18.954426
  Acc : 0.203000
-----------
  Epoch: 13
  - Running minibatch...
  - Computing cost...
  - Computing validation cost...
  - Computing accuracy...
  Cost: 16.815164
  Vali-cost: 17.242439
  Acc : 0.232900
-----------
  Epoch: 14
  - Running minibatch...
  - Computing cost...
  - Computing validation cost...
  - Computing accuracy...
  Cost: 22.948292
  Vali-cost: 23.456819
  Acc : 0.188800
-----------
  Epoch: 15
  - Running minibatch...
  - Computing cost...
  - Computing validation cost...
  - Computing accuracy...
  Cost: 18.043906
  Vali-cost: 18.760832
  Acc : 0.225900
-----------
  Epoch: 16
  - Running minibatch...
  - Computing cost...
  - Computing validation cost...
  - Computing accuracy...
  Cost: 23.554860
  Vali-cost: 24.150140
  Acc : 0.187300
-----------
  Epoch: 17
  - Running minibatch...
  - Computing cost...
  - Computing validation cost...
  - Computing accuracy...
  Cost: 19.691685
  Vali-cost: 20.156420
  Acc : 0.215500
-----------
  Epoch: 18
  - Running minibatch...
  - Computing cost...
  - Computing validation cost...
  - Computing accuracy...
  Cost: 20.821878
  Vali-cost: 21.226182
  Acc : 0.184900
-----------
  Epoch: 19
  - Running minibatch...
  - Computing cost...
  - Computing validation cost...
  - Computing accuracy...
  Cost: 18.845178
  Vali-cost: 19.404861
  Acc : 0.196100
-----------
  Epoch: 20
  - Running minibatch...
  - Computing cost...
  - Computing validation cost...
  - Computing accuracy...
  Cost: 14.926497
  Vali-cost: 15.662501
  Acc : 0.246600
-----------
  Epoch: 21
  - Running minibatch...
  - Computing cost...
  - Computing validation cost...
  - Computing accuracy...
  Cost: 21.795861
  Vali-cost: 22.452382
  Acc : 0.200400
-----------
  Epoch: 22
  - Running minibatch...
  - Computing cost...
  - Computing validation cost...
  - Computing accuracy...
  Cost: 16.345123
  Vali-cost: 17.065734
  Acc : 0.259200
-----------
  Epoch: 23
  - Running minibatch...
  - Computing cost...
  - Computing validation cost...
  - Computing accuracy...
  Cost: 17.807063
  Vali-cost: 18.464669
  Acc : 0.218000
-----------
  Epoch: 24
  - Running minibatch...
  - Computing cost...
  - Computing validation cost...
  - Computing accuracy...
  Cost: 12.760625
  Vali-cost: 13.306502
  Acc : 0.271000
-----------
  Epoch: 25
  - Running minibatch...
  - Computing cost...
  - Computing validation cost...
  - Computing accuracy...
  Cost: 17.379150
  Vali-cost: 17.927419
  Acc : 0.228800
-----------
  Epoch: 26
  - Running minibatch...
  - Computing cost...
  - Computing validation cost...
  - Computing accuracy...
  Cost: 19.369324
  Vali-cost: 19.988446
  Acc : 0.220100
-----------
  Epoch: 27
  - Running minibatch...
  - Computing cost...
  - Computing validation cost...
  - Computing accuracy...
  Cost: 21.712573
  Vali-cost: 22.472275
  Acc : 0.264400
-----------
  Epoch: 28
  - Running minibatch...
  - Computing cost...
  - Computing validation cost...
  - Computing accuracy...
  Cost: 18.441168
  Vali-cost: 19.015463
  Acc : 0.295300
-----------
  Epoch: 29
  - Running minibatch...
  - Computing cost...
  - Computing validation cost...
  - Computing accuracy...
  Cost: 17.797824
  Vali-cost: 18.317684
  Acc : 0.240400
-----------
  Epoch: 30
  - Running minibatch...
  - Computing cost...
  - Computing validation cost...
  - Computing accuracy...
  Cost: 21.244673
  Vali-cost: 21.832515
  Acc : 0.209800
-----------
  Epoch: 31
  - Running minibatch...
  - Computing cost...
  - Computing validation cost...
  - Computing accuracy...
  Cost: 18.298652
  Vali-cost: 19.015472
  Acc : 0.246500
-----------
  Epoch: 32
  - Running minibatch...
  - Computing cost...
  - Computing validation cost...
  - Computing accuracy...
  Cost: 14.075158
  Vali-cost: 14.701015
  Acc : 0.246600
-----------
  Epoch: 33
  - Running minibatch...
  - Computing cost...
  - Computing validation cost...
  - Computing accuracy...
  Cost: 19.208236
  Vali-cost: 19.876814
  Acc : 0.260200
-----------
  Epoch: 34
  - Running minibatch...
  - Computing cost...
  - Computing validation cost...
  - Computing accuracy...
  Cost: 20.437820
  Vali-cost: 21.182277
  Acc : 0.269900
-----------
  Epoch: 35
  - Running minibatch...
  - Computing cost...
  - Computing validation cost...
  - Computing accuracy...
  Cost: 23.712043
  Vali-cost: 24.478682
  Acc : 0.195700
-----------
  Epoch: 36
  - Running minibatch...
  - Computing cost...
  - Computing validation cost...
  - Computing accuracy...
  Cost: 14.201755
  Vali-cost: 14.973836
  Acc : 0.233300
-----------
  Epoch: 37
  - Running minibatch...
  - Computing cost...
  - Computing validation cost...
  - Computing accuracy...
  Cost: 11.860307
  Vali-cost: 12.308147
  Acc : 0.260300
-----------
  Epoch: 38
  - Running minibatch...
  - Computing cost...
  - Computing validation cost...
  - Computing accuracy...
  Cost: 19.499312
  Vali-cost: 20.191550
  Acc : 0.222100
-----------
  Epoch: 39
  - Running minibatch...
  - Computing cost...
  - Computing validation cost...
  - Computing accuracy...
  Cost: 24.160084
  Vali-cost: 24.675369
  Acc : 0.206000
-----------
  Epoch: 40
  - Running minibatch...
  - Computing cost...
  - Computing validation cost...
  - Computing accuracy...
  Cost: 16.220418
  Vali-cost: 16.817525
  Acc : 0.257500
