Run with id: W9YI02FK-UsingAllDataTest4

Started 2018-04-10 17:11:50.888921
Finished 2018-04-10 17:14:16.846202
n_batch:100
eta:0.010000
epochs :40
lambda:1.000000
Training set size: 49000
Validation set size: 1000
Final accuracy: 0.241500


Saved epochs information:
-----------
  Epoch: 1
  - Running minibatch...
  - Computing cost...
  - Computing validation cost...
  - Computing accuracy...
  Cost: 3.092795
  Vali-cost: 3.094293
  Acc : 0.218500
-----------
  Epoch: 2
  - Running minibatch...
  - Computing cost...
  - Computing validation cost...
  - Computing accuracy...
  Cost: 2.461394
  Vali-cost: 2.463583
  Acc : 0.234400
-----------
  Epoch: 3
  - Running minibatch...
  - Computing cost...
  - Computing validation cost...
  - Computing accuracy...
  Cost: 2.283619
  Vali-cost: 2.285910
  Acc : 0.237900
-----------
  Epoch: 4
  - Running minibatch...
  - Computing cost...
  - Computing validation cost...
  - Computing accuracy...
  Cost: 2.233464
  Vali-cost: 2.235749
  Acc : 0.240300
-----------
  Epoch: 5
  - Running minibatch...
  - Computing cost...
  - Computing validation cost...
  - Computing accuracy...
  Cost: 2.219373
  Vali-cost: 2.221642
  Acc : 0.241900
-----------
  Epoch: 6
  - Running minibatch...
  - Computing cost...
  - Computing validation cost...
  - Computing accuracy...
  Cost: 2.215456
  Vali-cost: 2.217716
  Acc : 0.241800
-----------
  Epoch: 7
  - Running minibatch...
  - Computing cost...
  - Computing validation cost...
  - Computing accuracy...
  Cost: 2.214391
  Vali-cost: 2.216646
  Acc : 0.241600
-----------
  Epoch: 8
  - Running minibatch...
  - Computing cost...
  - Computing validation cost...
  - Computing accuracy...
  Cost: 2.214114
  Vali-cost: 2.216368
  Acc : 0.241500
-----------
  Epoch: 9
  - Running minibatch...
  - Computing cost...
  - Computing validation cost...
  - Computing accuracy...
  Cost: 2.214049
  Vali-cost: 2.216302
  Acc : 0.241600
-----------
  Epoch: 10
  - Running minibatch...
  - Computing cost...
  - Computing validation cost...
  - Computing accuracy...
  Cost: 2.214037
  Vali-cost: 2.216291
  Acc : 0.241600
-----------
  Epoch: 11
  - Running minibatch...
  - Computing cost...
  - Computing validation cost...
  - Computing accuracy...
  Cost: 2.214038
  Vali-cost: 2.216292
  Acc : 0.241500
-----------
  Epoch: 12
  - Running minibatch...
  - Computing cost...
  - Computing validation cost...
  - Computing accuracy...
  Cost: 2.214040
  Vali-cost: 2.216294
  Acc : 0.241500
-----------
  Epoch: 13
  - Running minibatch...
  - Computing cost...
  - Computing validation cost...
  - Computing accuracy...
  Cost: 2.214041
  Vali-cost: 2.216296
  Acc : 0.241500
-----------
  Epoch: 14
  - Running minibatch...
  - Computing cost...
  - Computing validation cost...
  - Computing accuracy...
  Cost: 2.214042
  Vali-cost: 2.216297
  Acc : 0.241500
-----------
  Epoch: 15
  - Running minibatch...
  - Computing cost...
  - Computing validation cost...
  - Computing accuracy...
  Cost: 2.214043
  Vali-cost: 2.216297
  Acc : 0.241500
-----------
  Epoch: 16
  - Running minibatch...
  - Computing cost...
  - Computing validation cost...
  - Computing accuracy...
  Cost: 2.214043
  Vali-cost: 2.216298
  Acc : 0.241500
-----------
  Epoch: 17
  - Running minibatch...
  - Computing cost...
  - Computing validation cost...
  - Computing accuracy...
  Cost: 2.214043
  Vali-cost: 2.216298
  Acc : 0.241500
-----------
  Epoch: 18
  - Running minibatch...
  - Computing cost...
  - Computing validation cost...
  - Computing accuracy...
  Cost: 2.214043
  Vali-cost: 2.216298
  Acc : 0.241500
-----------
  Epoch: 19
  - Running minibatch...
  - Computing cost...
  - Computing validation cost...
  - Computing accuracy...
  Cost: 2.214043
  Vali-cost: 2.216298
  Acc : 0.241500
-----------
  Epoch: 20
  - Running minibatch...
  - Computing cost...
  - Computing validation cost...
  - Computing accuracy...
  Cost: 2.214044
  Vali-cost: 2.216298
  Acc : 0.241500
-----------
  Epoch: 21
  - Running minibatch...
  - Computing cost...
  - Computing validation cost...
  - Computing accuracy...
  Cost: 2.214044
  Vali-cost: 2.216298
  Acc : 0.241500
-----------
  Epoch: 22
  - Running minibatch...
  - Computing cost...
  - Computing validation cost...
  - Computing accuracy...
  Cost: 2.214044
  Vali-cost: 2.216298
  Acc : 0.241500
-----------
  Epoch: 23
  - Running minibatch...
  - Computing cost...
  - Computing validation cost...
  - Computing accuracy...
  Cost: 2.214044
  Vali-cost: 2.216298
  Acc : 0.241500
-----------
  Epoch: 24
  - Running minibatch...
  - Computing cost...
  - Computing validation cost...
  - Computing accuracy...
  Cost: 2.214044
  Vali-cost: 2.216298
  Acc : 0.241500
-----------
  Epoch: 25
  - Running minibatch...
  - Computing cost...
  - Computing validation cost...
  - Computing accuracy...
  Cost: 2.214044
  Vali-cost: 2.216298
  Acc : 0.241500
-----------
  Epoch: 26
  - Running minibatch...
  - Computing cost...
  - Computing validation cost...
  - Computing accuracy...
  Cost: 2.214044
  Vali-cost: 2.216298
  Acc : 0.241500
-----------
  Epoch: 27
  - Running minibatch...
  - Computing cost...
  - Computing validation cost...
  - Computing accuracy...
  Cost: 2.214044
  Vali-cost: 2.216298
  Acc : 0.241500
-----------
  Epoch: 28
  - Running minibatch...
  - Computing cost...
  - Computing validation cost...
  - Computing accuracy...
  Cost: 2.214044
  Vali-cost: 2.216298
  Acc : 0.241500
-----------
  Epoch: 29
  - Running minibatch...
  - Computing cost...
  - Computing validation cost...
  - Computing accuracy...
  Cost: 2.214044
  Vali-cost: 2.216298
  Acc : 0.241500
-----------
  Epoch: 30
  - Running minibatch...
  - Computing cost...
  - Computing validation cost...
  - Computing accuracy...
  Cost: 2.214044
  Vali-cost: 2.216298
  Acc : 0.241500
-----------
  Epoch: 31
  - Running minibatch...
  - Computing cost...
  - Computing validation cost...
  - Computing accuracy...
  Cost: 2.214044
  Vali-cost: 2.216298
  Acc : 0.241500
-----------
  Epoch: 32
  - Running minibatch...
  - Computing cost...
  - Computing validation cost...
  - Computing accuracy...
  Cost: 2.214044
  Vali-cost: 2.216298
  Acc : 0.241500
-----------
  Epoch: 33
  - Running minibatch...
  - Computing cost...
  - Computing validation cost...
  - Computing accuracy...
  Cost: 2.214044
  Vali-cost: 2.216298
  Acc : 0.241500
-----------
  Epoch: 34
  - Running minibatch...
  - Computing cost...
  - Computing validation cost...
  - Computing accuracy...
  Cost: 2.214044
  Vali-cost: 2.216298
  Acc : 0.241500
-----------
  Epoch: 35
  - Running minibatch...
  - Computing cost...
  - Computing validation cost...
  - Computing accuracy...
  Cost: 2.214044
  Vali-cost: 2.216298
  Acc : 0.241500
-----------
  Epoch: 36
  - Running minibatch...
  - Computing cost...
  - Computing validation cost...
  - Computing accuracy...
  Cost: 2.214044
  Vali-cost: 2.216298
  Acc : 0.241500
-----------
  Epoch: 37
  - Running minibatch...
  - Computing cost...
  - Computing validation cost...
  - Computing accuracy...
  Cost: 2.214044
  Vali-cost: 2.216298
  Acc : 0.241500
-----------
  Epoch: 38
  - Running minibatch...
  - Computing cost...
  - Computing validation cost...
  - Computing accuracy...
  Cost: 2.214044
  Vali-cost: 2.216298
  Acc : 0.241500
-----------
  Epoch: 39
  - Running minibatch...
  - Computing cost...
  - Computing validation cost...
  - Computing accuracy...
  Cost: 2.214044
  Vali-cost: 2.216298
  Acc : 0.241500
-----------
  Epoch: 40
  - Running minibatch...
  - Computing cost...
  - Computing validation cost...
  - Computing accuracy...
  Cost: 2.214044
  Vali-cost: 2.216298
  Acc : 0.241500
